Catches in innings,Player,Playing country,Opponent,Stadium,City,Original year,Year
4,M Kaif,India,Sri Lanka,New Wanderers Stadium,Johannesburg,2002/03,2003
4,Soumya Sarkar,Bangladesh,Scotland,Saxton Oval,Nelson,2014/15,2015
4,Umar Akmal,Pakistan,Ireland,Adelaide Oval,Adelaide,2014/15,2015
3,CL Cairns,New Zealand,United Arab Emirates,Iqbal Stadium,Faisalabad,1995/96,1996
3,GP Thorpe,England,Sri Lanka,Lord's Cricket Ground,St John's Wood,1999,1999
3,NJ Astle,New Zealand,Australia,Sophia Gardens,Cardiff,1999,1999
3,IL Philip,Scotland,Bangladesh,Raeburn Place,Edinburgh,1999,1999
3,RT Ponting,Australia,Bangladesh,Riverside Ground,Chester-le-Street,1999,1999
3,CH Lloyd,West Indies,Sri Lanka,Old Trafford,Manchester,1975,1975
3,DA Reeve,England,Pakistan,Adelaide Oval,Adelaide,1991/92,1992
3,Ijaz Ahmed,Pakistan,Australia,Western Australia Cricket Association Ground,Perth,1991/92,1992
3,AR Border,Australia,Zimbabwe,Bellerive Oval,Hobart,1991/92,1992
3,SC Williams,West Indies,Scotland,Grace Road,Leicester,1999,1999
3,AR Whittall,Zimbabwe,South Africa,County Ground,Chelmsford,1999,1999
3,V Sehwag,India,Netherlands,Boland Bank Park,Paarl,2002/03,2003
3,LJ Burger,Namibia,England,St George's Park,Port Elizabeth,2002/03,2003
3,HH Dippenaar,South Africa,Bangladesh,Goodyear Park,Bloemfontein,2002/03,2003
3,D Mongia,India,Namibia,City Oval,Pietermaritzburg,2002/03,2003
3,V Sehwag,India,England,Kingsmead,Durban,2002/03,2003
3,AF Giles,England,Australia,St George's Park,Port Elizabeth,2002/03,2003
3,SO Tikolo,Kenya,New Zealand,Beausejour Stadium,Gros Islet,2006/07,2007
3,Inzamam-ul-Haq,Pakistan,Zimbabwe,Sabina Park,Kingston,2006/07,2007
3,EJG Morgan,Ireland,New Zealand,Guyana National Stadium,Providence,2006/07,2007
3,LPC Silva,Sri Lanka,New Zealand,Queen's Park (New),St George's,2006/07,2007
3,AN Kervezee,Netherlands,West Indies,Feroz Shah Kotla,Delhi,2010/11,2011
3,E Chigumbura,Zimbabwe,Sri Lanka,Pallekele Cricket Stadium,Pallekele,2010/11,2011
3,LRPL Taylor,New Zealand,Canada,Wankhede Stadium,Mumbai,2010/11,2011
3,Z Khan,India,Australia,Sardar Patel Stadium,Motera,2010/11,2011
3,AB de Villiers,South Africa,Zimbabwe,Seddon Park,Hamilton,2014/15,2015
3,SK Raina,India,United Arab Emirates,Western Australia Cricket Association Ground,Perth,2014/15,2015
3,TM Dilshan,Sri Lanka,England,Westpac Stadium,Wellington,2014/15,2015
3,WTS Porterfield,Ireland,Zimbabwe,Blundstone Arena,Hobart,2014/15,2015
3,UT Yadav,India,Ireland,Seddon Park,Hamilton,2014/15,2015
3,CS MacLeod,Scotland,Sri Lanka,Blundstone Arena,Hobart,2014/15,2015
3,FRJ Coleman,Scotland,Sri Lanka,Blundstone Arena,Hobart,2014/15,2015
3,RR Rossouw,South Africa,United Arab Emirates,Westpac Stadium,Wellington,2014/15,2015
3,F du Plessis,South Africa,Sri Lanka,Sydney Cricket Ground,Sydney,2014/15,2015
3,AJ Finch,Australia,Pakistan,Adelaide Oval,Adelaide,2014/15,2015
