Product_id	Product_Sub_cat_id	Product_Name
726	14	LL Road Frame - Red, 48
711	31	Sport-100 Helmet, Blue
722	14	LL Road Frame - Black, 58
770	2	Road-650 Black, 52
762	2	Road-650 Red, 44
716	21	Long-Sleeve Logo Jersey, XL
708	31	Sport-100 Helmet, Black
714	21	Long-Sleeve Logo Jersey, M
761	2	Road-650 Red, 62
712	19	AWC Logo Cap
769	2	Road-650 Black, 48
765	2	Road-650 Black, 58
763	2	Road-650 Red, 48
715	21	Long-Sleeve Logo Jersey, L
